<?xml version="1.0" standalone="yes"?>
<svg width="100" height="100" viewBox="0 0 100 100" fill="none" xmlns="http://www.w3.org/2000/svg">
	<circle cx="50" cy="50" r="50" fill="#009ADE"></circle>
	<path d="M80.534 58.6289L59.9688 62.7123" stroke="white" stroke-width="4" stroke-linecap="round" stroke-linejoin="round"></path>
	<path d="M18.875 58.6676H27.9697L40.9993 73.2934C41.4719 73.8124 42.0441 74.231 42.6819 74.5244C43.3196 74.8178 44.0098 74.9798 44.7114 75.001C52.2969 69.5412 59.4232 63.4702 66.0191 56.8487C66.4274 55.6979 65.6479 54.5471 64.9425 53.582L55.6251 41.5547" stroke="white" stroke-width="4" stroke-linecap="round" stroke-linejoin="round"></path>
	<path d="M44.4906 32.2352L43.1913 31.1216C41.8567 30.1719 40.2633 29.6537 38.6254 29.6367C37.6334 29.6346 36.6504 29.8237 35.7299 30.1936L19.1367 36.8012" stroke="white" stroke-width="4" stroke-linecap="round" stroke-linejoin="round"></path>
	<path d="M8 30.4571H15.4243C16.3594 30.4541 17.2613 30.8041 17.9495 31.4373C18.6377 32.0705 19.0616 32.94 19.1364 33.8722V57.7041C19.0528 58.6296 18.625 59.4901 17.9377 60.1155C17.2504 60.741 16.3535 61.0859 15.4243 61.0821H8" stroke="white" stroke-width="4" stroke-linecap="round" stroke-linejoin="round"></path>
	<path d="M91.5231 61.0821H84.0989C83.1696 61.0859 82.2727 60.741 81.5854 60.1155C80.8981 59.4901 80.4703 58.6296 80.3867 57.7041V33.8722C80.4615 32.94 80.8854 32.0705 81.5736 31.4373C82.2618 30.8041 83.1637 30.4541 84.0989 30.4571H91.5231" stroke="white" stroke-width="4" stroke-linecap="round" stroke-linejoin="round"></path>
	<path d="M59.9702 40.1063L47.1633 44.3382C45.7508 44.832 44.2045 44.7781 42.8298 44.187C41.4552 43.5959 40.3523 42.5107 39.7391 41.1457C39.0784 39.7237 38.9956 38.1008 39.508 36.6189C40.0205 35.137 41.0881 33.9119 42.486 33.2018L54.9588 26.9283C56.1772 26.3084 57.5267 25.9901 58.8937 26.0002C59.9056 26.007 60.9093 26.1827 61.8634 26.5199L80.424 33.276" stroke="white" stroke-width="4" stroke-linecap="round" stroke-linejoin="round"></path>
</svg>