<?xml version="1.0" standalone="yes"?>
<svg width="22" height="22" viewBox="0 0 22 22" fill="none" xmlns="http://www.w3.org/2000/svg">
	<circle cx="9" cy="9" r="7.5" stroke="white" stroke-width="3"></circle>
	<path fill-rule="evenodd" clip-rule="evenodd" d="M21.3137 19.1923L14.8205 12.6992L12.6992 14.8205L19.1923 21.3137L21.3137 19.1923Z" fill="white"></path>
</svg>