<svg width="9" height="16" viewBox="0 0 9 16" fill="none" xmlns="http://www.w3.org/2000/svg">
<path d="M8.14844 9.37665L6.96992 8.1875L4.48174 10.6981L1.99356 8.1875L0.815042 9.37665L4.48174 13.0764L8.14844 9.37665Z" fill="white"/>
<path d="M4.48145 0.0585938L4.48145 11.0586" stroke="white" stroke-width="1.62964"/>
<line y1="14.7086" x2="9" y2="14.7086" stroke="white" stroke-width="1.62964"/>
</svg>
