<svg width="48" height="63" viewBox="0 0 48 63" fill="none" xmlns="http://www.w3.org/2000/svg">
<path d="M20.6787 26.6859C20.6787 28.2571 21.3029 29.764 22.4139 30.875C23.5249 31.986 25.0317 32.6101 26.6029 32.6101C28.1741 32.6101 29.681 31.986 30.792 30.875C31.903 29.764 32.5271 28.2571 32.5271 26.6859C32.5271 25.1147 31.903 23.6079 30.792 22.4969C29.681 21.3859 28.1741 20.7617 26.6029 20.7617C25.0317 20.7617 23.5249 21.3859 22.4139 22.4969C21.3029 23.6079 20.6787 25.1147 20.6787 26.6859V26.6859Z" stroke="white" stroke-width="4" stroke-linecap="round" stroke-linejoin="round"/>
<path d="M26.6025 32.6094V60.9903" stroke="white" stroke-width="4" stroke-linecap="round" stroke-linejoin="round"/>
<path d="M10.9043 60.9922H42.2973" stroke="white" stroke-width="4" stroke-linecap="round" stroke-linejoin="round"/>
<path d="M19.9359 15.8699C19.6575 13.6404 19.9931 11.3772 20.9064 9.32434C21.8197 7.27151 23.2762 5.50697 25.1186 4.22105C26.9611 2.93512 29.1197 2.17659 31.3615 2.02728C33.6034 1.87797 35.8435 2.34354 37.8402 3.37378L28.6801 21.1359" stroke="white" stroke-width="4" stroke-linecap="round" stroke-linejoin="round"/>
<path d="M39.0695 24.2422C40.9997 25.1841 42.6507 26.6133 43.8595 28.3886C45.0682 30.1639 45.7928 32.2239 45.9617 34.365C46.1305 36.5061 45.7378 38.6542 44.8223 40.597C43.9067 42.5398 42.5001 44.2102 40.7414 45.4429L30.6387 31.0195" stroke="white" stroke-width="4" stroke-linecap="round" stroke-linejoin="round"/>
<path d="M19.4698 38.1587C17.7089 38.9798 15.7792 39.3739 13.8373 39.309C11.8955 39.2441 9.99638 38.722 8.29426 37.7851C6.59214 36.8483 5.13505 35.523 4.04138 33.9172C2.94771 32.3113 2.2483 30.4701 2 28.5431L20.6942 26.1523" stroke="white" stroke-width="4" stroke-linecap="round" stroke-linejoin="round"/>
</svg>
