<svg width="88" height="53" viewBox="0 0 88 53" fill="none" xmlns="http://www.w3.org/2000/svg">
<path d="M74.5349 34.6289L53.9697 38.7123" stroke="white" stroke-width="4" stroke-linecap="round" stroke-linejoin="round"/>
<path d="M12.877 34.6676H21.9717L35.0013 49.2934C35.4739 49.8124 36.0461 50.231 36.6838 50.5244C37.3215 50.8178 38.0117 50.9798 38.7134 51.001C46.2989 45.5412 53.4252 39.4702 60.021 32.8487C60.4293 31.6979 59.6498 30.5471 58.9445 29.582L49.627 17.5547" stroke="white" stroke-width="4" stroke-linecap="round" stroke-linejoin="round"/>
<path d="M38.4906 8.23523L37.1913 7.12159C35.8567 6.17188 34.2633 5.65369 32.6254 5.63674C31.6334 5.63463 30.6504 5.82368 29.7299 6.19356L13.1367 12.8012" stroke="white" stroke-width="4" stroke-linecap="round" stroke-linejoin="round"/>
<path d="M2 6.45705H9.42426C10.3594 6.45405 11.2613 6.80413 11.9495 7.43729C12.6377 8.07045 13.0616 8.94004 13.1364 9.87221V33.7041C13.0528 34.6296 12.625 35.4901 11.9377 36.1155C11.2504 36.741 10.3535 37.0859 9.42426 37.0821H2" stroke="white" stroke-width="4" stroke-linecap="round" stroke-linejoin="round"/>
<path d="M85.5231 37.0821H78.0989C77.1696 37.0859 76.2727 36.741 75.5854 36.1155C74.8981 35.4901 74.4703 34.6296 74.3867 33.7041V9.87221C74.4615 8.94004 74.8854 8.07045 75.5736 7.43729C76.2618 6.80413 77.1637 6.45405 78.0989 6.45705H85.5231" stroke="white" stroke-width="4" stroke-linecap="round" stroke-linejoin="round"/>
<path d="M53.9702 16.1063L41.1633 20.3382C39.7508 20.832 38.2045 20.7781 36.8298 20.187C35.4552 19.5959 34.3523 18.5107 33.7391 17.1457C33.0784 15.7237 32.9956 14.1008 33.508 12.6189C34.0205 11.137 35.0881 9.91193 36.486 9.20177L48.9588 2.92827C50.1772 2.30837 51.5267 1.9901 52.8937 2.00023C53.9056 2.00705 54.9093 2.18269 55.8634 2.51993L74.424 9.27601" stroke="white" stroke-width="4" stroke-linecap="round" stroke-linejoin="round"/>
</svg>
